<?xml version="1.0" encoding="UTF-8" standalone="no"?>
<!-- Created with Inkscape (http://www.inkscape.org/) -->

<svg
   xmlns:dc="http://purl.org/dc/elements/1.1/"
   xmlns:cc="http://creativecommons.org/ns#"
   xmlns:rdf="http://www.w3.org/1999/02/22-rdf-syntax-ns#"
   xmlns:svg="http://www.w3.org/2000/svg"
   xmlns="http://www.w3.org/2000/svg"
   xmlns:sodipodi="http://sodipodi.sourceforge.net/DTD/sodipodi-0.dtd"
   xmlns:inkscape="http://www.inkscape.org/namespaces/inkscape"
   width="290.61807"
   height="116.51863"
   viewBox="0 0 290.61806 116.51863"
   id="svg2"
   version="1.1"
   inkscape:version="0.92.2 (5c3e80d, 2017-08-06)"
   sodipodi:docname="escuelab_white.svg">
  <defs
     id="defs4" />
  <sodipodi:namedview
     id="base"
     pagecolor="#2e3436"
     bordercolor="#666666"
     borderopacity="1.0"
     inkscape:pageopacity="1"
     inkscape:pageshadow="2"
     inkscape:zoom="3.614875"
     inkscape:cx="151.14198"
     inkscape:cy="56.788083"
     inkscape:document-units="px"
     inkscape:current-layer="layer1"
     showgrid="false"
     showguides="true"
     inkscape:guide-bbox="true"
     fit-margin-top="0"
     fit-margin-left="0"
     fit-margin-right="0"
     fit-margin-bottom="0"
     inkscape:window-width="1366"
     inkscape:window-height="741"
     inkscape:window-x="0"
     inkscape:window-y="27"
     inkscape:window-maximized="1"
     units="px" />
  <metadata
     id="metadata7">
    <rdf:RDF>
      <cc:Work
         rdf:about="">
        <dc:format>image/svg+xml</dc:format>
        <dc:type
           rdf:resource="http://purl.org/dc/dcmitype/StillImage" />
        <dc:title />
      </cc:Work>
    </rdf:RDF>
  </metadata>
  <g
     inkscape:label="Capa 1"
     inkscape:groupmode="layer"
     id="layer1"
     transform="translate(16.988679,-952.83228)">
    <path
       inkscape:connector-curvature="0"
       style="fill:#f9f9f9;fill-opacity:1;fill-rule:nonzero;stroke:none"
       d="m 28.000001,970.50316 0,8 7.04,0 0,11 7.78,-7.77999 9.96,9.95999 -7.78,7.78 11,0 0,7.04004 8,0 0,-36.00004 -36,0 z"
       id="rect3838-5" />
    <path
       inkscape:connector-curvature="0"
       style="fill:#f9f9f9;fill-opacity:1;fill-rule:nonzero;stroke:none"
       d="m 20.96,978.50316 0,11 -7.78,-7.77999 -9.96,9.95999 7.78,7.78 -11,0 0,14.08004 11,0 -7.78,7.7799 9.96,9.9401 7.78,-7.7801 0,11.0201 14.080001,0 0,-11.0201 7.78,7.7801 9.96,-9.9401 -7.78,-7.7799 11,0 0,-7.04 -28,0 0,-28.00004 -7.040001,0 z"
       id="rect3814-3" />
    <g
       aria-label="escuelab"
       style="font-style:normal;font-variant:normal;font-weight:normal;font-stretch:normal;line-height:0%;font-family:'Alte Haas Grotesk';-inkscape-font-specification:'Alte Haas Grotesk, Normal';text-align:start;letter-spacing:-2.21522117px;word-spacing:0px;writing-mode:lr-tb;text-anchor:start;fill:#f9f9f9;fill-opacity:1;stroke:none"
       id="text3859-3">
      <path
         d="m 96.510895,991.78983 q 0.101123,0.50562 0,1.16291 -0.05056,0.60674 -0.303367,0.85954 -0.252807,0.20225 -0.758419,0.30337 -0.455051,0.0506 -1.061786,0.0506 -0.606735,0 -1.21347,0 -0.606735,-0.0506 -1.061787,-0.0506 h -12.94368 q -0.40449,0 -0.80898,0.0506 -0.40449,0 -0.657297,0.15169 -0.202245,0.10112 -0.40449,0.40449 -0.101122,0.15168 -0.202245,0.45505 -0.101122,0.2528 0,0.50561 0.05056,0.25281 0.05056,0.45505 0,0.20225 0.05056,0.40449 0.101122,0.40449 0.202245,0.85954 0.101122,0.40449 0.303367,0.80898 1.162909,2.73029 3.842655,3.89319 0.303368,0.1517 0.657297,0.2528 0.353929,0.1012 0.707857,0.2023 0.151684,0.051 0.505613,0.051 0.707857,0.2023 1.870766,0.2023 1.162909,0 1.870766,-0.2023 0.707858,-0.2022 1.264032,-0.4044 0.606735,-0.2529 1.112347,-0.6068 0.556174,-0.3539 0.960664,-0.809 0.40449,-0.5056 0.707858,-1.06175 0.303367,-0.50561 0.505612,-1.06179 0.252806,-0.55617 0.80898,-0.80898 0.202245,-0.10112 0.657297,-0.15168 0.455051,-0.0506 0.910102,0 0.455051,0 0.859541,0.0506 0.40449,0.0506 0.556174,0.20225 0.505613,0.35393 0.252806,1.16291 -0.40449,1.36518 -1.061786,2.42698 -1.011225,1.6179 -2.325817,2.6797 -1.264032,1.0112 -3.235921,1.6685 -0.505612,0.2023 -1.011225,0.2528 -0.505612,0.1012 -1.061786,0.2023 -0.252806,0.051 -0.505613,0.051 -0.202245,0 -0.455051,0.051 h -0.505612 q -0.252807,0.051 -0.606735,0.051 -0.303368,0 -0.505613,-0.051 h -0.455051 q -0.252806,-0.051 -0.455051,-0.051 -0.202245,0 -0.40449,-0.051 -0.252807,-0.051 -0.556174,-0.1011 -0.303368,0 -0.556174,-0.051 -0.455051,-0.1011 -0.910103,-0.2528 -0.455051,-0.1011 -0.859541,-0.2528 -0.202245,-0.1011 -0.353929,-0.1011 -0.151683,-0.051 -0.353928,-0.1517 -0.758419,-0.354 -1.61796,-0.8596 -1.466277,-0.9606 -2.528063,-2.3258 -1.011225,-1.4157 -1.719083,-3.13478 -0.252806,-0.55618 -0.40449,-1.16291 -0.101122,-0.60674 -0.303367,-1.21347 -0.05056,-0.20225 -0.05056,-0.35393 0,-0.15169 -0.05056,-0.40449 -0.101122,-0.40449 -0.151683,-0.85954 -0.05056,-0.45505 -0.151684,-0.91011 v -0.70785 q -0.05056,-0.20225 -0.101123,-0.55618 0,-0.40449 0.05056,-0.65729 v -0.55618 q 0.101123,-0.2528 0.05056,-0.50561 0,-0.30337 0.05056,-0.55617 0.202245,-0.80898 0.303368,-1.61796 0.151683,-0.80898 0.455051,-1.51684 0.252806,-0.55618 0.455051,-1.11235 0.252806,-0.60673 0.556174,-1.16291 1.112347,-1.76964 2.528062,-3.03367 1.415716,-1.3146 3.488727,-2.17414 0.606735,-0.2528 1.21347,-0.35393 0.657296,-0.15168 1.365154,-0.30336 0.252806,-0.0506 0.455051,-0.0506 0.202245,-0.0506 0.455051,-0.0506 0.101123,-0.0506 0.252807,0 0.151683,0.0506 0.252806,-0.0506 2.123572,-0.0506 3.690971,0.45505 1.567399,0.45506 2.83143,1.26404 0.252807,0.10112 0.40449,0.30336 0.151684,0.15169 0.353929,0.25281 0.40449,0.30337 0.80898,0.70786 0.455052,0.40449 0.758419,0.80898 0.80898,1.06178 1.365154,2.02245 0.353929,0.55617 0.556174,1.21347 0.202245,0.65729 0.455051,1.31459 0.252806,0.6573 0.353929,1.36515 0.151683,0.70786 0.353928,1.41572 0.05056,0.35393 0.05056,0.70786 0.05056,0.35393 0.101122,0.70785 z m -4.904441,-1.71908 q 0.151683,-0.20224 0.252806,-0.50561 0.101122,-0.35393 0,-0.70786 -0.303368,-1.11235 -0.859541,-2.07301 -0.707858,-1.16291 -1.567399,-1.97189 -0.859541,-0.80898 -2.224695,-1.36515 -0.353929,-0.10113 -0.707858,-0.15169 -0.353929,-0.10112 -0.758419,-0.20224 -0.40449,-0.10112 -0.859541,-0.10112 -0.455051,0 -0.859541,0 -0.151684,0.10112 -0.353929,0.10112 -0.202245,-0.0506 -0.353929,0 -0.40449,0.10112 -0.80898,0.20224 -0.353929,0.0506 -0.707857,0.15169 -1.466277,0.60673 -2.376379,1.51683 -0.859541,0.91011 -1.567399,2.27526 -0.151684,0.25281 -0.303367,0.6573 -0.151684,0.35393 -0.252807,0.80898 -0.101122,0.45505 -0.05056,0.85954 0.05056,0.40449 0.353929,0.60673 0.40449,0.30337 1.365154,0.30337 1.011225,-0.0506 1.719082,-0.0506 h 7.685311 q 0.758418,0 1.820205,0.0506 1.061786,0 1.415715,-0.40449 z"
         style="font-style:normal;font-variant:normal;font-weight:normal;font-stretch:normal;font-size:50.56125259px;line-height:75%;font-family:'Alte Haas Grotesk';-inkscape-font-specification:'Alte Haas Grotesk, Normal';text-align:start;writing-mode:lr-tb;text-anchor:start;fill:#f9f9f9;fill-opacity:1"
         id="path25" />
      <path
         d="m 106.89096,979.20008 q 3.64041,-0.0506 6.11791,0.85954 2.4775,0.85954 3.84265,3.08424 0.35393,0.55617 0.55618,1.16291 0.20224,0.55617 0.40449,1.26403 0.10112,0.35393 0.0506,0.75842 -0.0506,0.35393 -0.15169,0.55617 -0.10112,0.10112 -0.2528,0.20225 -0.15169,0.0506 -0.25281,0.15168 -0.2528,0.10112 -0.50561,0.0506 -0.25281,-0.0506 -0.50561,0 -0.40449,0.10112 -1.06179,0.0506 -0.6573,-0.10112 -0.9101,-0.2528 -0.40449,-0.25281 -0.55618,-0.6573 -0.10112,-0.45505 -0.35392,-0.85954 -0.45506,-0.80898 -1.26404,-1.46628 -0.55617,-0.40449 -1.21347,-0.60673 -0.65729,-0.20225 -1.41571,-0.40449 -0.25281,-0.10112 -0.50561,-0.0506 -0.25281,0 -0.50562,-0.0506 -0.30336,-0.10113 -0.75841,-0.10113 -0.45506,0 -0.75842,0.10113 h -0.30337 q -0.25281,0.0506 -0.50561,0.10112 -0.25281,0 -0.50562,0.0506 -1.31459,0.30337 -2.17413,0.85954 -0.85954,0.55617 -1.16291,1.87077 -0.10112,0.35393 -0.0506,0.70785 0.10112,0.35393 0.20224,0.60674 0.30337,0.75842 0.70786,1.11235 0.45505,0.30336 1.11235,0.70785 0.80898,0.50562 1.82021,0.75842 1.01122,0.20225 2.02245,0.50562 0.65729,0.20224 1.31459,0.30336 0.65729,0.10113 1.31459,0.30337 1.06179,0.30337 2.07301,0.60674 1.01123,0.2528 2.02245,0.65729 0.25281,0.10113 0.50561,0.20225 0.25281,0.10112 0.50562,0.2528 1.01122,0.60674 1.76964,1.36516 0.75842,0.75842 1.26403,1.92133 0.10112,0.35392 0.20225,0.96066 0.10112,0.35393 0.10112,0.75842 0.0506,0.35393 0.0506,0.80898 v 0.50561 q -0.10112,0.35393 -0.10112,0.70786 0,0.35393 -0.10112,0.70787 -0.15169,0.5562 -0.35393,1.0618 -0.20225,0.5056 -0.45505,0.9101 -0.80898,1.3146 -2.07302,2.1235 -1.26403,0.7585 -2.83143,1.3146 -0.45505,0.1517 -0.96066,0.2023 -0.45505,0.1011 -0.9101,0.2528 -0.50561,0.1011 -1.01123,0.1011 -0.50561,0 -1.01122,0.1011 h -0.50561 q -0.25281,0.051 -0.70786,0.051 -0.45505,0 -0.70786,-0.051 h -0.55617 q -0.30337,-0.1011 -0.6573,-0.1011 -0.35393,0.051 -0.60673,-0.05 -0.25281,-0.051 -0.6573,-0.051 -0.40449,-0.1011 -0.80898,-0.2023 -0.35393,-0.05 -0.75842,-0.2022 -1.5674,-0.5056 -2.73031,-1.264 -1.162907,-0.7584 -2.022448,-1.9719 -0.455051,-0.6573 -0.758419,-1.3652 -0.303367,-0.7078 -0.556173,-1.56737 -0.101123,-0.30337 -0.101123,-0.70786 0.05056,-0.45505 0.151684,-0.70786 0.151684,-0.20224 0.505612,-0.40449 0.252807,-0.10112 0.707858,-0.10112 0.455051,-0.0506 0.910102,0 0.455052,0.0506 0.859537,0.15168 0.45506,0.0506 0.60674,0.15169 0.35393,0.2528 0.45505,0.75842 0.15168,0.45505 0.35393,0.85954 0.50561,1.11237 1.36515,1.71907 0.60674,0.4551 1.36516,0.7079 0.75842,0.2528 1.61796,0.5056 l 1.06178,0.1517 h 0.30337 q 0.35393,0.1011 0.9101,0.1011 0.60674,0 1.01123,-0.1011 0.35393,0 0.55617,-0.051 0.30337,-0.051 0.60674,-0.051 0.30337,-0.051 0.55617,-0.1011 1.46628,-0.4045 2.32582,-1.0618 0.85954,-0.6573 1.21347,-2.22466 0.10112,-0.25281 0.0506,-0.55618 -0.0506,-0.30336 -0.10112,-0.45505 -0.25281,-0.96066 -0.70786,-1.41571 -0.45505,-0.50561 -1.16291,-0.9101 -0.45505,-0.30337 -1.01122,-0.50562 -0.55618,-0.20224 -1.11235,-0.40449 -0.15168,-0.0506 -0.30337,-0.0506 -0.10112,0 -0.2528,-0.10112 -1.71909,-0.55617 -3.58985,-0.80898 -1.82021,-0.30337 -3.43817,-0.96066 -0.50561,-0.20225 -0.96066,-0.35393 -0.45505,-0.15169 -0.85954,-0.40449 -0.96067,-0.55618 -1.769648,-1.26403 -0.80898,-0.70786 -1.264031,-1.76965 -0.151684,-0.35393 -0.252806,-0.70786 -0.05056,-0.35393 -0.151684,-0.75842 -0.151684,-0.60673 -0.101123,-1.36515 0.05056,-0.80898 0.151684,-1.36515 0.101123,-0.25281 0.101123,-0.40449 0.05056,-0.20225 0.151683,-0.40449 0.455052,-1.16291 1.21347,-2.02245 0.808982,-0.85954 1.820202,-1.51684 0.75842,-0.45505 1.66852,-0.70786 0.91011,-0.30337 1.92133,-0.55617 0.35393,-0.0506 0.6573,-0.10112 0.35393,-0.0506 0.75842,-0.10113 0.15168,-0.0506 0.40449,0 0.2528,0.0506 0.35393,-0.0506 z"
         style="font-style:normal;font-variant:normal;font-weight:normal;font-stretch:normal;font-size:50.56125259px;line-height:75%;font-family:'Alte Haas Grotesk';-inkscape-font-specification:'Alte Haas Grotesk, Normal';text-align:start;writing-mode:lr-tb;text-anchor:start;fill:#f9f9f9;fill-opacity:1"
         id="path27" />
      <path
         d="m 132.33274,979.20008 q 3.74153,-0.0506 6.21903,1.11235 2.52807,1.11235 3.99434,3.3876 0.6573,1.01123 1.11235,2.4775 0.10112,0.25281 0.15168,0.6573 0.0506,0.40449 -0.0506,0.70786 -0.15168,0.2528 -0.50561,0.45505 -0.15168,0.10112 -0.30337,0.10112 -0.15168,-0.0506 -0.35393,0 -0.20224,0.0506 -0.40449,0.0506 -0.20224,-0.0506 -0.40449,-0.0506 -0.55617,0 -1.06178,0 -0.50561,-0.0506 -0.85954,-0.30337 -0.40449,-0.30336 -0.55618,-0.85954 -0.15168,-0.55617 -0.40449,-0.96066 -0.75842,-1.31459 -1.97189,-2.07301 -0.40449,-0.25281 -0.85954,-0.40449 -0.45505,-0.20225 -0.96066,-0.35393 -0.70786,-0.20225 -1.87077,-0.20225 -1.16291,-0.0506 -1.92132,0.20225 -0.35393,0.10112 -0.6573,0.15168 -0.30337,0.0506 -0.6573,0.15169 -1.31459,0.55617 -2.32582,1.51683 -1.01122,0.96067 -1.56739,2.27526 -0.20225,0.45505 -0.35393,0.96066 -0.15169,0.45506 -0.30337,1.01123 l -0.30337,1.36515 q -0.0506,0.25281 -0.0506,0.55618 0.0506,0.30337 -0.0506,0.55617 v 0.40449 q -0.0506,0.20225 -0.10112,0.6573 0,0.45505 0.10112,0.65729 0.0506,0.25281 0,0.50562 -0.0506,0.2528 0,0.50561 0.0506,0.20224 0.0506,0.70786 0.10112,0.40449 0.15168,0.85954 0.10113,0.45505 0.20225,0.85954 0.55617,1.61796 1.26403,2.83143 0.75842,1.16291 2.07301,2.02241 0.45505,0.2528 0.91011,0.4551 0.50561,0.2022 1.06178,0.4045 0.25281,0.051 0.40449,0.051 0.15169,0 0.40449,0.051 0.15169,0.051 0.50561,0.051 h 0.55618 q 0,0.051 0.20224,0.051 0.10113,-0.051 0.25281,0 0.15168,0 0.30337,-0.051 0.35393,-0.1012 0.65729,-0.051 0.35393,0 0.70786,-0.1011 1.31459,-0.4045 2.27526,-1.0112 0.96066,-0.6573 1.61796,-1.66857 0.2528,-0.40449 0.45505,-0.85954 0.20224,-0.45505 0.40449,-0.9101 0.10112,-0.40449 0.20224,-0.75842 0.15169,-0.40449 0.50562,-0.65729 0.15168,-0.15169 0.60673,-0.20225 0.45505,-0.10112 0.96066,-0.10112 0.55618,-0.0506 1.01123,0 0.50561,0.0506 0.70786,0.20224 0.30336,0.20225 0.35393,0.60674 0.10112,0.40449 0,0.85954 -0.25281,0.75842 -0.50562,1.46628 -0.20224,0.65729 -0.55617,1.31459 -0.75842,1.5168 -1.92133,2.6797 -1.11235,1.163 -2.73031,1.8708 -0.40449,0.2023 -0.85954,0.3539 -0.45505,0.1012 -0.96066,0.2528 -0.55617,0.2023 -1.11235,0.2023 -0.55617,0.051 -1.11235,0.1517 -0.20224,0.1011 -0.40449,0.051 -0.20224,-0.051 -0.40449,0 h -0.45505 q -0.40449,0 -0.80898,0 -0.35393,0.051 -0.65729,-0.051 h -0.25281 l -1.21347,-0.1517 q -0.6573,-0.2023 -1.26403,-0.3539 -0.60674,-0.1517 -1.16291,-0.4045 -1.82021,-0.809 -3.03368,-1.9214 -1.1629,-1.1123 -2.17413,-2.7303 -0.25281,-0.4045 -0.45505,-0.91007 -0.20225,-0.50561 -0.40449,-1.01122 -0.25281,-0.55617 -0.35393,-1.16291 -0.10112,-0.60673 -0.25281,-1.21347 -0.0506,-0.20224 -0.0506,-0.40449 0,-0.20224 -0.0506,-0.40449 -0.10112,-0.30337 -0.10112,-0.6573 0.0506,-0.35392 -0.0506,-0.65729 v -0.50561 q -0.0506,-0.25281 -0.0506,-0.70786 0,-0.45505 0.0506,-0.70786 0.0506,-0.25281 0,-0.45505 0,-0.20225 0.0506,-0.40449 0.10112,-0.35393 0.0506,-0.70786 0,-0.35393 0.10112,-0.65729 0.20225,-0.85955 0.35393,-1.71909 0.15169,-0.85954 0.45505,-1.61796 1.06179,-2.62918 2.57863,-4.24714 1.51683,-1.61796 4.14602,-2.67975 0.55617,-0.25281 1.21347,-0.35393 0.6573,-0.10112 1.36515,-0.2528 0.35393,-0.0506 0.70786,-0.0506 0.35393,-0.0506 0.75842,-0.10112 z"
         style="font-style:normal;font-variant:normal;font-weight:normal;font-stretch:normal;font-size:50.56125259px;line-height:75%;font-family:'Alte Haas Grotesk';-inkscape-font-specification:'Alte Haas Grotesk, Normal';text-align:start;writing-mode:lr-tb;text-anchor:start;fill:#f9f9f9;fill-opacity:1"
         id="path29" />
      <path
         d="m 148.27454,979.80682 q 0.70785,0 1.46627,0 0.75842,0 1.06179,0.40449 0.25281,0.40449 0.25281,1.01122 0.0506,0.60674 0.0506,1.21347 v 4.80332 7.63475 q 0,1.11235 0,2.32582 0,1.16291 0.2528,2.02245 0.80898,2.27526 3.03368,3.18536 1.11235,0.455 2.67975,0.3539 1.56739,-0.1517 2.52806,-0.5561 1.66852,-0.7079 2.62918,-1.7697 1.01123,-1.11234 1.5674,-2.88198 0.15169,-0.40449 0.20225,-0.80898 0.0506,-0.40449 0.15168,-0.85954 0.0506,-0.25281 0,-0.45506 0,-0.20224 0.10112,-0.45505 v -1.06178 q 0.10113,-0.40449 0.0506,-0.91011 -0.0506,-0.55617 -0.0506,-1.01122 v -3.94378 -5.35949 q 0,-0.60674 -0.0506,-1.26403 0,-0.70786 0.25281,-1.11235 0.20224,-0.25281 0.45505,-0.30337 0.30337,-0.10112 0.70786,-0.20224 h 0.75842 q 0.60673,0 1.06178,0.0506 0.50561,0.0506 0.75842,0.45505 0.25281,0.25281 0.25281,0.75842 0,0.45505 0,0.96066 v 3.43817 13.60097 4.55055 q 0,0.6067 -0.0506,1.1629 0,0.5056 -0.35393,0.7584 -0.20225,0.1517 -0.60674,0.2528 -0.40449,0.051 -0.9101,0.1011 -0.45505,0 -0.9101,-0.05 -0.40449,-0.051 -0.60674,-0.2023 -0.2528,-0.2022 -0.45505,-0.6573 -0.0506,-0.2022 -0.10112,-0.5562 0,-0.3539 -0.0506,-0.6572 -0.0506,-0.354 -0.20225,-0.5562 -0.15168,-0.2023 -0.45505,-0.1517 -0.40449,0.1011 -0.80898,0.6067 -0.40449,0.4551 -0.75842,0.7079 -1.11235,0.809 -2.52806,1.4157 -0.55617,0.2528 -1.16291,0.3034 -0.55617,0.1011 -1.16291,0.2528 -0.2528,0.051 -0.55617,0 -0.25281,-0.051 -0.50561,0.051 -0.50562,0.1012 -0.91011,0 h -0.50561 q -0.25281,-0.1011 -0.60674,-0.1011 -0.30336,0 -0.55617,-0.05 -0.20224,-0.1012 -0.40449,-0.1012 -0.15168,0.051 -0.40449,-0.05 -0.40449,-0.1012 -0.80898,-0.2023 -0.35393,-0.1011 -0.75842,-0.3033 -1.31459,-0.5562 -2.22469,-1.4663 -0.85954,-0.9607 -1.41572,-2.2753 -0.20224,-0.455 -0.30337,-0.9101 -0.10112,-0.5056 -0.20224,-1.0112 -0.10112,-0.30337 -0.10112,-0.55618 0.0506,-0.30337 -0.0506,-0.65729 -0.0506,-0.10113 -0.0506,-0.25281 0,-0.20225 -0.0506,-0.35393 v -0.50561 q -0.0506,-0.20225 -0.0506,-0.45505 0.0506,-0.30337 0.0506,-0.55618 v -2.02245 -9.30327 -3.23592 q 0,-0.45505 0,-0.9101 0,-0.45505 0.20225,-0.75842 0.20224,-0.35393 0.75842,-0.50561 0.10112,-0.0506 0.20224,0 0.10112,0 0.20225,-0.0506 z"
         style="font-style:normal;font-variant:normal;font-weight:normal;font-stretch:normal;font-size:50.56125259px;line-height:75%;font-family:'Alte Haas Grotesk';-inkscape-font-specification:'Alte Haas Grotesk, Normal';text-align:start;writing-mode:lr-tb;text-anchor:start;fill:#f9f9f9;fill-opacity:1"
         id="path31" />
      <path
         d="m 195.38893,991.78983 q 0.10112,0.50562 0,1.16291 -0.0506,0.60674 -0.30337,0.85954 -0.2528,0.20225 -0.75841,0.30337 -0.45506,0.0506 -1.06179,0.0506 -0.60674,0 -1.21347,0 -0.60674,-0.0506 -1.06179,-0.0506 h -12.94368 q -0.40449,0 -0.80898,0.0506 -0.40449,0 -0.65729,0.15169 -0.20225,0.10112 -0.40449,0.40449 -0.10113,0.15168 -0.20225,0.45505 -0.10112,0.2528 0,0.50561 0.0506,0.25281 0.0506,0.45505 0,0.20225 0.0506,0.40449 0.10113,0.40449 0.20225,0.85954 0.10112,0.40449 0.30337,0.80898 1.1629,2.73029 3.84265,3.89319 0.30337,0.1517 0.6573,0.2528 0.35393,0.1012 0.70785,0.2023 0.15169,0.051 0.50562,0.051 0.70785,0.2023 1.87076,0.2023 1.16291,0 1.87077,-0.2023 0.70786,-0.2022 1.26403,-0.4044 0.60674,-0.2529 1.11235,-0.6068 0.55617,-0.3539 0.96066,-0.809 0.40449,-0.5056 0.70786,-1.06175 0.30337,-0.50561 0.50561,-1.06179 0.25281,-0.55617 0.80898,-0.80898 0.20225,-0.10112 0.6573,-0.15168 0.45505,-0.0506 0.9101,0 0.45505,0 0.85954,0.0506 0.40449,0.0506 0.55618,0.20225 0.50561,0.35393 0.2528,1.16291 -0.40449,1.36518 -1.06178,2.42698 -1.01123,1.6179 -2.32582,2.6797 -1.26403,1.0112 -3.23592,1.6685 -0.50561,0.2023 -1.01123,0.2528 -0.50561,0.1012 -1.06178,0.2023 -0.25281,0.051 -0.50562,0.051 -0.20224,0 -0.45505,0.051 h -0.50561 q -0.25281,0.051 -0.60673,0.051 -0.30337,0 -0.50562,-0.051 h -0.45505 q -0.2528,-0.051 -0.45505,-0.051 -0.20224,0 -0.40449,-0.051 -0.25281,-0.051 -0.55617,-0.1011 -0.30337,0 -0.55618,-0.051 -0.45505,-0.1011 -0.9101,-0.2528 -0.45505,-0.1011 -0.85954,-0.2528 -0.20225,-0.1011 -0.35393,-0.1011 -0.15168,-0.051 -0.35393,-0.1517 -0.75842,-0.354 -1.61796,-0.8596 -1.46627,-0.9606 -2.52806,-2.3258 -1.01123,-1.4157 -1.71908,-3.13478 -0.25281,-0.55618 -0.40449,-1.16291 -0.10113,-0.60674 -0.30337,-1.21347 -0.0506,-0.20225 -0.0506,-0.35393 0,-0.15169 -0.0506,-0.40449 -0.10113,-0.40449 -0.15169,-0.85954 -0.0506,-0.45505 -0.15168,-0.91011 v -0.70785 q -0.0506,-0.20225 -0.10112,-0.55618 0,-0.40449 0.0506,-0.65729 v -0.55618 q 0.10112,-0.2528 0.0506,-0.50561 0,-0.30337 0.0506,-0.55617 0.20225,-0.80898 0.30337,-1.61796 0.15168,-0.80898 0.45505,-1.51684 0.25281,-0.55618 0.45505,-1.11235 0.25281,-0.60673 0.55617,-1.16291 1.11235,-1.76964 2.52807,-3.03367 1.41571,-1.3146 3.48872,-2.17414 0.60674,-0.2528 1.21347,-0.35393 0.6573,-0.15168 1.36516,-0.30336 0.2528,-0.0506 0.45505,-0.0506 0.20224,-0.0506 0.45505,-0.0506 0.10112,-0.0506 0.25281,0 0.15168,0.0506 0.2528,-0.0506 2.12357,-0.0506 3.69097,0.45505 1.5674,0.45506 2.83143,1.26404 0.25281,0.10112 0.40449,0.30336 0.15169,0.15169 0.35393,0.25281 0.40449,0.30337 0.80898,0.70786 0.45505,0.40449 0.75842,0.80898 0.80898,1.06178 1.36516,2.02245 0.35392,0.55617 0.55617,1.21347 0.20224,0.65729 0.45505,1.31459 0.25281,0.6573 0.35393,1.36515 0.15168,0.70786 0.35393,1.41572 0.0506,0.35393 0.0506,0.70786 0.0506,0.35393 0.10112,0.70785 z m -4.90444,-1.71908 q 0.15168,-0.20224 0.25281,-0.50561 0.10112,-0.35393 0,-0.70786 -0.30337,-1.11235 -0.85954,-2.07301 -0.70786,-1.16291 -1.5674,-1.97189 -0.85954,-0.80898 -2.2247,-1.36515 -0.35393,-0.10113 -0.70786,-0.15169 -0.35393,-0.10112 -0.75842,-0.20224 -0.40449,-0.10112 -0.85954,-0.10112 -0.45505,0 -0.85954,0 -0.15168,0.10112 -0.35393,0.10112 -0.20224,-0.0506 -0.35393,0 -0.40449,0.10112 -0.80898,0.20224 -0.35392,0.0506 -0.70785,0.15169 -1.46628,0.60673 -2.37638,1.51683 -0.85954,0.91011 -1.5674,2.27526 -0.15168,0.25281 -0.30337,0.6573 -0.15168,0.35393 -0.2528,0.80898 -0.10113,0.45505 -0.0506,0.85954 0.0506,0.40449 0.35393,0.60673 0.40449,0.30337 1.36516,0.30337 1.01122,-0.0506 1.71908,-0.0506 h 7.68531 q 0.75842,0 1.82021,0.0506 1.06178,0 1.41571,-0.40449 z"
         style="font-style:normal;font-variant:normal;font-weight:normal;font-stretch:normal;font-size:50.56125259px;line-height:75%;font-family:'Alte Haas Grotesk';-inkscape-font-specification:'Alte Haas Grotesk, Normal';text-align:start;writing-mode:lr-tb;text-anchor:start;fill:#f9f9f9;fill-opacity:1"
         id="path33" />
      <path
         d="m 199.4994,969.84625 q 0.6573,0 1.36515,0 0.75842,0 1.11235,0.35393 0.25281,0.35393 0.25281,0.96066 0.0506,0.55618 0.0506,1.16291 v 4.49995 20.47731 5.66289 q 0,0.6067 0,1.3146 0,0.7078 -0.25281,1.1123 -0.15168,0.2528 -0.45505,0.3034 -0.25281,0.05 -0.6573,0.1517 h -0.70785 q -0.55618,0 -1.06179,0 -0.50561,-0.051 -0.75842,-0.354 -0.2528,-0.4045 -0.30337,-1.0112 0,-0.6067 0,-1.264 v -4.65166 -21.03348 -4.955 q 0,-0.55618 -0.0506,-1.16291 0,-0.6573 0.25281,-1.01123 0.20224,-0.30336 0.75842,-0.50561 0.10112,-0.0506 0.20224,0 0.15169,0 0.25281,-0.0506 z"
         style="font-style:normal;font-variant:normal;font-weight:normal;font-stretch:normal;font-size:50.56125259px;line-height:75%;font-family:'Alte Haas Grotesk';-inkscape-font-specification:'Alte Haas Grotesk, Normal';text-align:start;writing-mode:lr-tb;text-anchor:start;fill:#f9f9f9;fill-opacity:1"
         id="path35" />
      <path
         d="m 229.82824,1003.9751 q 0.15168,0.809 -0.15169,1.3651 -0.30337,0.5057 -0.80898,0.7585 -0.2528,0.1011 -0.55617,0.1011 -0.25281,0 -0.55618,0.1011 -1.11234,0.2528 -2.22469,-0.1517 -1.06179,-0.3539 -1.46628,-0.9101 -0.2528,-0.3539 -0.45505,-0.809 -0.20224,-0.5056 -0.50561,-0.8089 -0.10112,-0.1012 -0.25281,-0.2023 -0.10112,-0.1011 -0.30336,-0.051 -0.55618,0.1516 -1.06179,0.5561 -0.45505,0.4045 -0.9101,0.7079 -0.6573,0.4045 -1.41572,0.7584 -0.75842,0.3034 -1.61796,0.5562 -0.50561,0.1517 -1.11235,0.2022 -0.55617,0.051 -1.11234,0.1517 -0.25281,0.051 -0.45505,0.051 -0.15169,0 -0.35393,0 -0.55618,0.1011 -1.06179,0 h -0.45505 q -0.25281,-0.051 -0.50561,-0.051 -0.25281,0 -0.45505,-0.1011 -0.20225,-0.051 -0.35393,-0.051 -0.10113,0.051 -0.25281,0 -0.40449,-0.1011 -0.80898,-0.2022 -0.40449,-0.051 -0.75842,-0.2023 -1.51684,-0.6573 -2.4775,-1.4662 -0.9101,-0.8596 -1.51684,-2.3764 -0.45505,-1.1124 -0.45505,-2.67976 v -1.06179 q 0.0506,-0.2528 0.0506,-0.50561 0.0506,-0.30337 0.10112,-0.60674 0.20225,-0.55617 0.40449,-1.11234 0.20225,-0.55618 0.50562,-1.01123 0.9101,-1.46627 2.4775,-2.17413 1.5674,-0.70786 3.43816,-1.26403 0.70786,-0.20225 1.46628,-0.30337 0.75842,-0.10112 1.51684,-0.25281 0.35393,-0.10112 0.65729,-0.10112 0.35393,0 0.75842,-0.10112 0.35393,-0.10112 0.70786,-0.10112 0.35393,-0.0506 0.75842,-0.15169 1.26403,-0.30337 2.37638,-0.50561 1.11235,-0.25281 1.76964,-1.16291 0.30337,-0.40449 0.50561,-1.01123 0.20225,-0.65729 0,-1.41571 -0.30336,-1.21347 -0.9101,-1.92133 -0.55617,-0.70786 -1.61796,-1.11235 -0.60673,-0.2528 -1.46627,-0.35392 -0.80898,-0.10113 -1.71909,-0.10113 -0.9101,0 -1.76964,0.10113 -0.85954,0.10112 -1.46628,0.30336 -0.85954,0.30337 -1.66852,0.85954 -0.40449,0.30337 -0.75842,0.80898 -0.30337,0.45506 -0.55617,1.01123 -0.15169,0.40449 -0.30337,0.85954 -0.10112,0.45505 -0.45505,0.70786 -0.20225,0.15168 -0.70786,0.2528 -0.45505,0.0506 -0.96066,0.0506 -0.50561,0 -1.01123,-0.0506 -0.45505,-0.10112 -0.65729,-0.2528 -0.20225,-0.15169 -0.30337,-0.50561 -0.10112,-0.35393 0,-0.75842 0.15168,-0.6573 0.30337,-1.21347 0.20224,-0.60674 0.45505,-1.16291 0.96066,-1.76965 2.42694,-2.73031 1.46627,-1.01122 3.64041,-1.61796 0.50561,-0.10112 1.01122,-0.15168 0.55618,-0.0506 1.11235,-0.15169 0.20225,-0.0506 0.6573,0 0.45505,0 0.55617,-0.10112 3.53929,-0.0506 6.16847,0.80898 2.62919,0.85954 3.69098,3.28648 0.45505,1.01123 0.50561,2.37638 0.10112,1.31459 0.10112,2.78087 v 11.17404 q 0,0.70783 0.0506,1.36513 0.0506,0.6573 0.30337,1.0618 0.25281,0.3539 0.6573,0.5056 0.45505,0.2023 0.85954,0.3034 0.40449,0.051 0.60673,0.455 0.10112,0.1517 0.10112,0.3034 0,0.1517 0.0506,0.4045 z m -7.23026,-5.6123 q 0.30336,-0.70786 0.30336,-1.61796 0.0506,-0.96067 0.0506,-1.97189 0,-0.55618 -0.0506,-1.01123 -0.0506,-0.45505 -0.40449,-0.70785 -0.15168,-0.10113 -0.70785,-0.10113 -0.10113,0.10113 -0.35393,0.10113 -0.25281,0 -0.45505,0.10112 -0.40449,0.10112 -0.91011,0.20224 -0.50561,0.10113 -1.01122,0.20225 -0.15168,0 -0.35393,0.0506 -0.15168,0 -0.35393,0 -0.75842,0.20224 -1.66852,0.25281 -0.85954,0 -1.61796,0.20224 -0.40449,0.10112 -0.75842,0.20225 -0.30337,0.0506 -0.70786,0.15168 -0.80898,0.25281 -1.51683,0.6573 -0.70786,0.35392 -1.21347,0.9101 -0.50562,0.55617 -0.75842,1.36515 -0.25281,0.75842 -0.20225,1.87077 0,0.50561 0.15169,0.96066 0.20224,0.4045 0.45505,0.7584 0.40449,0.5562 1.06178,0.9607 0.6573,0.3539 1.41572,0.6067 0.25281,0.051 0.50561,0.051 0.25281,0 0.50561,0.051 0.35393,0.1012 0.85955,0.1517 0.55617,0 0.9101,-0.1011 0.30337,-0.1011 0.60673,-0.051 0.30337,0 0.60674,-0.1011 0.40449,-0.1011 0.75842,-0.1517 0.40449,-0.05 0.75842,-0.2022 1.46627,-0.6067 2.4775,-1.4663 1.06178,-0.85953 1.61796,-2.3258 z"
         style="font-style:normal;font-variant:normal;font-weight:normal;font-stretch:normal;font-size:50.56125259px;line-height:75%;font-family:'Alte Haas Grotesk';-inkscape-font-specification:'Alte Haas Grotesk, Normal';text-align:start;writing-mode:lr-tb;text-anchor:start;fill:#f9f9f9;fill-opacity:1"
         id="path37" />
      <path
         d="m 256.59015,992.24489 q 0.0506,0.2528 0.0506,0.70785 0,0.40449 -0.0506,0.6573 0,0.20224 -0.0506,0.40449 0,0.15168 0,0.40449 -0.10112,0.40449 -0.10112,0.80898 0,0.40449 -0.10112,0.80898 -0.0506,0.20224 -0.0506,0.40449 0,0.15168 -0.0506,0.35393 -0.15168,0.55617 -0.30336,1.06178 -0.10113,0.50562 -0.30337,1.01123 -0.70786,1.76969 -1.71908,3.18539 -1.01123,1.4157 -2.52807,2.4269 -0.75842,0.5056 -1.46627,0.8595 -0.55618,0.2529 -1.11235,0.4045 -0.50561,0.1517 -1.06179,0.3034 -0.35393,0.1011 -0.65729,0.1011 -0.30337,0.051 -0.60674,0.1517 h -0.50561 q -0.25281,0.1011 -0.75842,0.1011 -0.50561,0.051 -0.80898,-0.051 h -0.50561 q -0.20225,-0.051 -0.45505,-0.051 -0.20225,0 -0.45505,-0.05 -0.75842,-0.2023 -1.51684,-0.354 -0.70786,-0.1517 -1.41572,-0.455 -1.01122,-0.4045 -1.8202,-1.0113 -0.30337,-0.2528 -0.60674,-0.5056 -0.30336,-0.3033 -0.70785,-0.4045 -0.30337,-0.05 -0.50562,0.1517 -0.15168,0.1517 -0.2528,0.4551 -0.0506,0.3033 -0.10113,0.6573 0,0.3033 -0.10112,0.455 -0.20224,0.2528 -0.45505,0.4551 -0.25281,0.1011 -0.70786,0.1517 -0.40449,0 -0.9101,0 -0.45505,0 -0.85954,-0.051 -0.40449,-0.1011 -0.60674,-0.2022 -0.10112,-0.1012 -0.20224,-0.2529 -0.10112,-0.1516 -0.20225,-0.3033 -0.15168,-0.4045 -0.15168,-1.2135 0.0506,-0.809 0.0506,-1.3651 v -29.6795 q 0,-0.60673 -0.0506,-1.26403 0,-0.70786 0.25281,-1.11235 0.20224,-0.30336 0.65729,-0.50561 0.10112,0 0.25281,0 0.15168,-0.0506 0.25281,-0.0506 0.70785,-0.0506 1.46627,0 0.80898,0 1.11235,0.40449 0.25281,0.40449 0.25281,1.16291 0,0.70786 0,1.36515 v 5.91567 q 0,0.35393 0,0.85954 0,0.45505 0,0.96066 0.0506,0.45506 0.10112,0.85955 0.10112,0.35392 0.30337,0.50561 0.20224,0.15168 0.45505,0.0506 0.2528,-0.10112 0.40449,-0.20225 0.2528,-0.20224 0.45505,-0.40449 0.2528,-0.20224 0.50561,-0.40449 0.35393,-0.2528 0.70786,-0.45505 0.40449,-0.20224 0.80898,-0.40449 0.9101,-0.45505 2.17413,-0.65729 1.26403,-0.20225 2.57863,-0.20225 1.31459,0 2.57862,0.25281 1.26403,0.20224 2.22469,0.60673 2.02245,0.85954 3.48873,2.37638 1.46628,1.51684 2.32582,3.53929 0.2528,0.55617 0.40449,1.11235 0.20224,0.50561 0.40449,1.06178 0.15168,0.55618 0.20224,1.16291 0.10113,0.55618 0.20225,1.11235 0.0506,0.15168 0.0506,0.35393 0,0.15168 0.0506,0.30337 0.10112,0.30336 0,0.60673 -0.0506,0.25281 0.0506,0.55618 z m -4.49995,1.31459 q 0.10112,-0.25281 0.0506,-0.60674 -0.0506,-0.35393 -0.0506,-0.65729 0,-0.85954 -0.10112,-1.61796 -0.0506,-0.75842 -0.30337,-1.36516 -0.15168,-0.50561 -0.25281,-0.9101 -0.10112,-0.40449 -0.30336,-0.80898 -0.55618,-1.26403 -1.51684,-2.32582 -0.96066,-1.11235 -2.2247,-1.66852 -0.40449,-0.15168 -0.80898,-0.25281 -0.35392,-0.15168 -0.75841,-0.2528 -0.55618,-0.15169 -1.11235,-0.15169 -0.55618,-0.0506 -1.21347,-0.0506 -0.25281,0.0506 -0.45505,0.10113 -0.20225,0 -0.45505,0 -0.45506,0.10112 -0.91011,0.20224 -0.40449,0.10112 -0.80898,0.30337 -1.71908,0.70786 -2.7303,2.12357 -1.01123,1.36515 -1.61796,3.23592 -0.20225,0.55617 -0.25281,1.11235 -0.0506,0.55617 -0.20225,1.16291 -0.0506,0.2528 0,0.45505 0.0506,0.20224 -0.0506,0.45505 -0.0506,0.25281 -0.0506,0.75842 0,0.45505 0.0506,0.70786 v 0.40449 q 0.0506,0.20224 0.0506,0.40449 0,0.20224 0.0506,0.35393 0.0506,0.15168 0.0506,0.35392 0,0.15169 0.0506,0.30337 0.10112,0.40449 0.15168,0.80898 0.10112,0.40449 0.20225,0.80898 0.55617,1.71908 1.51683,2.93255 1.01123,1.21347 2.47751,2.02247 0.45505,0.2528 0.96066,0.4045 0.50561,0.1011 1.06179,0.2528 0.2528,0.1011 0.45505,0.1011 0.2528,-0.051 0.50561,0 0.20224,0.051 0.45505,0.051 0.25281,0 0.45505,0 h 0.45505 q 0.20225,-0.051 0.35393,-0.051 0.15169,0 0.35393,-0.051 0.40449,-0.1011 0.75842,-0.1516 0.35393,-0.1012 0.75842,-0.2528 1.5674,-0.6573 2.52806,-1.7191 0.96066,-1.11238 1.61796,-2.67978 0.25281,-0.70785 0.35393,-1.41571 0.15168,-0.75842 0.35393,-1.51684 0.10112,-0.25281 0.0506,-0.45505 0,-0.25281 0.0506,-0.50561 z"
         style="font-style:normal;font-variant:normal;font-weight:normal;font-stretch:normal;font-size:50.56125259px;line-height:75%;font-family:'Alte Haas Grotesk';-inkscape-font-specification:'Alte Haas Grotesk, Normal';text-align:start;writing-mode:lr-tb;text-anchor:start;fill:#f9f9f9;fill-opacity:1"
         id="path39" />
    </g>
    <g
       aria-label="puno"
       style="font-style:normal;font-variant:normal;font-weight:normal;font-stretch:normal;line-height:0%;font-family:'Alte Haas Grotesk';-inkscape-font-specification:'Alte Haas Grotesk, Normal';text-align:start;letter-spacing:-2.21953201px;word-spacing:0px;writing-mode:lr-tb;text-anchor:start;fill:#f9f9f9;fill-opacity:1;stroke:none"
       id="text3859-3-6">
      <path
         d="m 98.786152,1028.8007 q 0.05056,0.2528 0.05056,0.6573 0,0.4045 -0.05056,0.6573 -0.101123,0.2528 -0.05056,0.5056 0.05056,0.2022 0,0.4045 0,0.3539 -0.05056,0.5562 -0.101122,0.455 -0.151684,0.9101 0,0.455 -0.101122,0.9101 -0.101123,0.4044 -0.202245,0.8089 -0.101123,0.354 -0.252806,0.7585 -0.606735,1.8707 -1.668522,3.3876 -0.303367,0.455 -0.657296,0.9101 -0.353929,0.4045 -0.758419,0.7584 l -0.252806,0.2528 q -0.353929,0.2528 -0.657296,0.5056 -0.303368,0.2528 -0.707858,0.5056 -0.556174,0.4045 -1.264031,0.7079 -0.657297,0.2528 -1.365154,0.5056 -0.40449,0.1011 -0.80898,0.1517 -0.353929,0.05 -0.758419,0.1517 -0.101122,0 -0.202245,0 -0.05056,0.051 -0.151684,0.051 -0.455051,0.1011 -1.365153,0.1011 -0.859542,0.051 -1.365154,-0.05 h -0.252807 q -0.353928,-0.051 -0.657296,-0.1011 -0.303367,0 -0.606735,-0.1012 -0.859541,-0.2528 -1.61796,-0.455 -0.758419,-0.2023 -1.415715,-0.6068 -0.80898,-0.455 -1.415715,-0.9606 -0.202245,-0.1517 -0.606735,-0.4045 -0.40449,-0.3034 -0.758419,-0.051 -0.202245,0.1517 -0.202245,0.4045 0,0.2528 -0.101122,0.5562 -0.05056,0.1517 0,0.3539 0.05056,0.1517 0,0.3539 -0.101123,0.3034 -0.101123,0.6573 0.05056,0.4045 0.05056,0.7079 v 6.0674 q 0,0.7078 0,1.4662 0,0.7584 -0.303367,1.1629 -0.252806,0.354 -0.80898,0.354 -0.556174,0.051 -1.112348,0.051 h -0.80898 q -0.353929,-0.1011 -0.606735,-0.2022 -0.202245,-0.1011 -0.353929,-0.3539 -0.252806,-0.354 -0.252806,-1.1124 0.05056,-0.7584 0.05056,-1.3146 v -30.3367 q 0,-0.6068 0,-1.2135 0.05056,-0.6573 0.303368,-1.0618 0.151684,-0.2022 0.657296,-0.3034 0.556174,-0.1516 1.162909,-0.1011 0.606735,0 1.112347,0.1517 0.556174,0.1011 0.707858,0.3034 0.202245,0.2528 0.202245,0.6067 0.05056,0.3539 0.202245,0.7079 0.101123,0.1516 0.151684,0.2528 0.101122,0.051 0.202245,0.1516 0.556174,0.051 0.910102,-0.3539 0.40449,-0.4045 0.758419,-0.6573 1.314593,-0.9101 3.134798,-1.4157 0.455051,-0.1011 0.910102,-0.1517 0.505613,-0.05 1.011225,-0.1517 0.202245,-0.051 0.505613,0 0.303367,0.051 0.40449,-0.051 2.174134,-0.051 3.842655,0.455 1.668521,0.4551 2.983114,1.3146 0.252806,0.2023 0.505613,0.4045 0.252806,0.1517 0.505612,0.3539 0.101123,0.1012 0.151684,0.2023 0.101122,0.05 0.202245,0.1517 0.252806,0.2528 0.556174,0.5561 0.303367,0.3034 0.556173,0.6068 0.606735,0.8595 1.264032,1.8707 0.40449,0.6573 0.657296,1.4663 0.303368,0.809 0.556174,1.618 0.101122,0.4045 0.151684,0.8595 0.101122,0.4551 0.202245,0.8596 0,0.2022 0,0.4045 0.05056,0.1516 0.05056,0.3033 0.101122,0.2528 0.05056,0.5562 0,0.3034 0.101123,0.5562 z m -4.499952,1.3651 q 0.101123,-0.2528 0.05056,-0.6067 -0.05056,-0.4045 -0.05056,-0.7079 0,-0.8595 -0.101122,-1.6179 -0.05056,-0.7584 -0.303368,-1.4663 -0.101122,-0.3034 -0.202245,-0.6067 -0.05056,-0.354 -0.202245,-0.6573 -0.556174,-1.3652 -1.769644,-2.6292 -1.162909,-1.264 -2.224695,-1.7191 -0.40449,-0.2022 -0.859541,-0.3034 -0.40449,-0.1011 -0.859541,-0.2528 -0.455052,-0.1011 -1.061787,-0.1011 -0.556174,0 -1.112347,0 -0.101123,0.1011 -0.40449,0.1011 -0.252807,-0.05 -0.455052,0 -0.455051,0.1012 -0.910102,0.2023 -0.40449,0.1011 -0.80898,0.3033 -1.61796,0.7079 -2.679747,2.0731 -1.011225,1.3146 -1.567398,3.0842 -0.202245,0.5562 -0.303368,1.1123 -0.05056,0.5562 -0.151684,1.1124 -0.05056,0.2022 -0.05056,0.4045 0,0.1517 -0.05056,0.3539 v 0.4045 q -0.05056,0.2528 -0.05056,0.7584 0,0.4551 0.05056,0.7079 v 0.4045 q 0.05056,0.2022 0.05056,0.4045 0,0.2022 0.05056,0.3539 0.05056,0.1517 0.05056,0.3034 0,0.1516 0.05056,0.3539 0.101122,0.4045 0.151684,0.809 0.101122,0.4045 0.202245,0.8089 0.556173,1.7191 1.516837,3.0337 1.011225,1.264 2.629185,1.9719 0.960664,0.4045 1.971889,0.6067 0.202245,0.1012 0.40449,0.1012 0.202245,-0.051 0.40449,0 h 0.40449 q 0.353929,0.1011 0.707858,0 h 0.40449 q 0.556174,-0.1012 1.061786,-0.1517 0.505613,-0.051 1.011225,-0.2528 1.567399,-0.6573 2.528063,-1.7191 1.011225,-1.1124 1.668521,-2.6798 0.252806,-0.7078 0.353929,-1.4157 0.151684,-0.7584 0.353929,-1.5674 0.05056,-0.2528 0.05056,-0.455 0,-0.2023 0.05056,-0.4551 z"
         style="font-style:normal;font-variant:normal;font-weight:normal;font-stretch:normal;font-size:50.56125259px;line-height:75%;font-family:'Alte Haas Grotesk';-inkscape-font-specification:'Alte Haas Grotesk, Normal';text-align:start;writing-mode:lr-tb;text-anchor:start;fill:#f9f9f9;fill-opacity:1"
         id="path16" />
      <path
         d="m 103.12694,1016.4637 q 0.70786,0 1.46628,0 0.75842,0 1.06179,0.4045 0.2528,0.4045 0.2528,1.0113 0.0506,0.6067 0.0506,1.2134 v 4.8033 7.6348 q 0,1.1123 0,2.3258 0,1.1629 0.25281,2.0225 0.80898,2.2752 3.03367,3.1853 1.11235,0.4551 2.67975,0.3539 1.5674,-0.1516 2.52806,-0.5561 1.66852,-0.7079 2.62919,-1.7697 1.01122,-1.1123 1.5674,-2.882 0.15168,-0.4045 0.20224,-0.8089 0.0506,-0.4045 0.15169,-0.8596 0.0506,-0.2528 0,-0.455 0,-0.2023 0.10112,-0.4551 v -1.0618 q 0.10112,-0.4045 0.0506,-0.9101 -0.0506,-0.5561 -0.0506,-1.0112 v -3.9438 -5.3595 q 0,-0.6067 -0.0506,-1.264 0,-0.7079 0.2528,-1.1123 0.20225,-0.2529 0.45505,-0.3034 0.30337,-0.1011 0.70786,-0.2023 h 0.75842 q 0.60674,0 1.06179,0.051 0.50561,0.051 0.75842,0.4551 0.2528,0.2528 0.2528,0.7584 0,0.455 0,0.9606 v 3.4382 13.601 4.5505 q 0,0.6067 -0.0506,1.1629 0,0.5056 -0.35393,0.7584 -0.20224,0.1517 -0.60673,0.2528 -0.40449,0.051 -0.91011,0.1011 -0.45505,0 -0.9101,-0.051 -0.40449,-0.051 -0.60673,-0.2023 -0.25281,-0.2022 -0.45505,-0.6573 -0.0506,-0.2022 -0.10113,-0.5561 0,-0.354 -0.0506,-0.6573 -0.0506,-0.354 -0.20224,-0.5562 -0.15169,-0.2022 -0.45505,-0.1517 -0.40449,0.1011 -0.80898,0.6067 -0.40449,0.4551 -0.75842,0.7079 -1.11235,0.809 -2.52807,1.4157 -0.55617,0.2528 -1.1629,0.3034 -0.55618,0.1011 -1.16291,0.2528 -0.25281,0.051 -0.55618,0 -0.2528,-0.051 -0.50561,0.051 -0.50561,0.1011 -0.9101,0 h -0.50561 q -0.25281,-0.1012 -0.60674,-0.1012 -0.30337,0 -0.55617,-0.05 -0.20225,-0.1011 -0.40449,-0.1011 -0.15169,0.051 -0.40449,-0.051 -0.40449,-0.1011 -0.80898,-0.2023 -0.35393,-0.1011 -0.75842,-0.3033 -1.31459,-0.5562 -2.2247,-1.4663 -0.85954,-0.9607 -1.41571,-2.2753 -0.20225,-0.455 -0.30337,-0.9101 -0.10112,-0.5056 -0.20224,-1.0112 -0.10113,-0.3034 -0.10113,-0.5562 0.0506,-0.3033 -0.0506,-0.6573 -0.0506,-0.1011 -0.0506,-0.2528 0,-0.2022 -0.0506,-0.3539 v -0.5056 q -0.0506,-0.2022 -0.0506,-0.4551 0.0506,-0.3033 0.0506,-0.5561 v -2.0225 -9.3032 -3.236 q 0,-0.455 0,-0.9101 0,-0.455 0.20224,-0.7584 0.20225,-0.3539 0.75842,-0.5056 0.10113,-0.051 0.20225,0 0.10112,0 0.20224,-0.051 z"
         style="font-style:normal;font-variant:normal;font-weight:normal;font-stretch:normal;font-size:50.56125259px;line-height:75%;font-family:'Alte Haas Grotesk';-inkscape-font-specification:'Alte Haas Grotesk, Normal';text-align:start;writing-mode:lr-tb;text-anchor:start;fill:#f9f9f9;fill-opacity:1"
         id="path18" />
      <path
         d="m 139.92253,1015.9581 q 3.18536,-0.1011 5.10668,0.8596 1.92133,0.9606 3.08424,2.882 0.30337,0.5056 0.45505,1.1123 0.20225,0.5562 0.35393,1.1629 0.25281,0.9607 0.30337,2.073 0.0506,1.1124 0.0506,2.2753 v 5.41 7.8876 q 0,0.8595 -0.0506,1.7191 0,0.8595 -0.6573,1.1123 -0.2528,0.1011 -0.55617,0.1011 -0.25281,0.051 -0.55618,0.051 -0.65729,0 -1.26403,-0.051 -0.60673,0 -0.85954,-0.4044 -0.2528,-0.354 -0.2528,-0.9101 0,-0.5562 0,-1.1124 v -4.3483 -8.2414 q 0,-1.3652 -0.0506,-2.6798 -0.0506,-1.3651 -0.45505,-2.3258 -0.40449,-1.0112 -1.21347,-1.618 -0.80898,-0.6573 -1.87076,-1.0112 -0.30337,-0.1011 -0.6573,-0.1011 -0.30337,-0.051 -0.60674,-0.1517 -0.2528,-0.051 -0.80898,0 -0.50561,0 -0.70785,0.051 -0.20225,0.1011 -0.35393,0.1011 -0.15169,-0.051 -0.35393,0 -0.6573,0.1517 -1.26403,0.3539 -0.55618,0.1517 -1.06179,0.4551 -0.20224,0.1011 -0.35393,0.2022 -0.15168,0.1011 -0.35393,0.2023 -1.76964,1.264 -2.57862,3.792 -0.15168,0.4045 -0.20224,0.8596 -0.0506,0.4045 -0.15169,0.809 -0.10112,0.2528 -0.0506,0.5056 0.0506,0.2022 -0.0506,0.4045 v 1.0618 q -0.0506,0.1516 -0.0506,0.3539 0.0506,0.2022 0.0506,0.455 v 1.5169 4.8539 4.4493 q 0,0.5562 0,1.163 0,0.5561 -0.25281,0.9101 -0.2528,0.4044 -0.9101,0.4044 -0.60673,0.051 -1.26403,0.051 -0.40449,0 -0.75842,-0.051 -0.35393,-0.051 -0.60673,-0.2528 -0.40449,-0.2528 -0.40449,-0.9606 0,-0.7079 0,-1.3652 v -5.9662 -12.2358 -3.0843 q 0,-0.455 0,-0.9101 0,-0.455 0.20224,-0.7078 0.15168,-0.3034 0.50561,-0.4045 0.20225,-0.051 0.55618,-0.1011 0.40449,-0.051 0.80898,-0.051 0.40449,0 0.75842,0.051 0.40449,0.051 0.55617,0.1516 0.55617,0.354 0.50561,0.9101 -0.0506,0.5057 0.15169,1.163 0.10112,0.3033 0.40449,0.5056 0.60673,0.05 0.96066,-0.4551 0.40449,-0.5056 0.80898,-0.809 0.70786,-0.5056 1.41571,-0.9101 0.75842,-0.455 1.71909,-0.7584 0.40449,-0.1517 0.85954,-0.2022 0.50561,-0.051 0.96066,-0.1517 0.25281,-0.051 0.50561,-0.051 0.25281,0 0.50562,0 z"
         style="font-style:normal;font-variant:normal;font-weight:normal;font-stretch:normal;font-size:50.56125259px;line-height:75%;font-family:'Alte Haas Grotesk';-inkscape-font-specification:'Alte Haas Grotesk, Normal';text-align:start;writing-mode:lr-tb;text-anchor:start;fill:#f9f9f9;fill-opacity:1"
         id="path20" />
      <path
         d="m 177.42597,1028.3456 q 0.10113,0.3034 0.10113,0.9607 0,0.6067 -0.0506,0.8595 v 0.5057 q -0.0506,0.4044 -0.10112,0.7584 0,0.3033 -0.0506,0.7078 -0.10112,0.3034 -0.15168,0.6068 0,0.3033 -0.10113,0.6067 -0.20224,0.6573 -0.35392,1.3146 -0.15169,0.6573 -0.40449,1.2135 -1.06179,2.4269 -2.83143,4.0954 -1.76965,1.618 -4.34827,2.4775 -0.55618,0.2023 -1.21347,0.3034 -0.60674,0.1011 -1.26403,0.2022 -0.30337,0.051 -0.6573,0.051 -0.30337,0.051 -0.60673,0.051 -0.20225,0.051 -0.60674,0.051 -0.35393,0 -0.50561,-0.051 -0.20225,-0.051 -0.40449,-0.051 -0.20225,0.051 -0.35393,0 h -0.30337 l -1.21347,-0.1517 q -0.70786,-0.2022 -1.36515,-0.4045 -0.6573,-0.2022 -1.26403,-0.455 -2.27526,-1.0113 -3.74154,-2.6292 -1.46627,-1.618 -2.42694,-3.9438 -0.2528,-0.5056 -0.40449,-1.0112 -0.10112,-0.5056 -0.20224,-1.0618 -0.10112,-0.2022 -0.10112,-0.3034 0.0506,-0.1517 0,-0.3539 -0.10113,-0.4045 -0.15169,-0.809 0,-0.455 -0.10112,-0.8595 0,-0.2528 0,-0.4045 0,-0.2023 -0.0506,-0.4551 -0.0506,-0.2528 -0.0506,-0.8595 0,-0.6573 0.10112,-0.9607 0.10112,-0.3539 0.0506,-0.7078 -0.0506,-0.354 0.0506,-0.7079 0.0506,-0.2528 0.0506,-0.4045 0.0506,-0.2022 0.10113,-0.455 0.15168,-0.6068 0.2528,-1.2135 0.15169,-0.6067 0.40449,-1.1629 0.75842,-1.8708 1.82021,-3.337 1.11234,-1.5169 2.67974,-2.5281 0.60674,-0.4045 1.26403,-0.6573 0.6573,-0.3034 1.36516,-0.6067 0.60673,-0.2528 1.31459,-0.3034 0.70786,-0.1011 1.41572,-0.3034 0.35393,0 0.65729,0 0.35393,-0.05 0.6573,-0.1011 4.49995,-0.051 7.48306,1.8708 2.98312,1.9213 4.29771,5.0055 0.25281,0.5056 0.40449,1.0113 0.15168,0.5056 0.35393,1.0617 0.15168,0.5562 0.25281,1.2135 0.10112,0.6068 0.2528,1.264 0.0506,0.2529 0,0.5562 0,0.2528 0.0506,0.5056 z m -4.49995,2.882 q 0.10112,-0.3539 0.0506,-0.809 0,-0.455 0,-0.8595 0,-1.9719 -0.35393,-3.337 -0.15168,-0.4045 -0.2528,-0.809 -0.10112,-0.4045 -0.25281,-0.7584 -1.41571,-3.2865 -4.49995,-4.5506 -0.35393,-0.1516 -0.75842,-0.2022 -0.40449,-0.1011 -0.80898,-0.2022 -0.40449,-0.1012 -0.85954,-0.1012 -0.45505,0 -0.9101,0 l -0.9101,0.1517 q -0.50562,0.1011 -0.96067,0.2528 -0.40449,0.1011 -0.80898,0.3034 -0.35393,0.1011 -0.6573,0.3034 -0.30336,0.2022 -0.55617,0.4045 -1.21347,0.8595 -1.97189,2.073 -0.75842,1.2134 -1.31459,2.8314 -0.15168,0.5056 -0.20225,1.0618 -0.0506,0.5056 -0.15168,1.0618 -0.0506,0.2022 -0.0506,0.6573 -0.0506,0.1516 -0.0506,0.3539 0.0506,0.2022 0.0506,0.455 0,0.5057 0,1.0113 0,0.5056 0.10112,0.9101 l 0.10112,0.6067 q 0.10113,0.5056 0.15169,1.0112 0.10112,0.4551 0.30337,0.8596 0.50561,1.2134 1.1629,2.2752 0.70786,1.0618 1.71909,1.7697 0.2528,0.1517 0.45505,0.2528 0.20224,0.1011 0.45505,0.2528 0.40449,0.2528 0.85954,0.455 0.50561,0.1517 1.06179,0.3034 0.2528,0.1011 0.45505,0.1011 0.25281,-0.05 0.50561,0 0.15169,0.051 0.60674,0.1011 0.50561,0.051 0.75842,-0.051 0.20224,-0.051 0.40449,0 0.20224,0 0.40449,-0.1011 0.40449,-0.1012 0.80898,-0.1517 0.40449,-0.1011 0.75841,-0.2528 1.71909,-0.7079 2.78087,-1.9719 1.06179,-1.264 1.76965,-2.9831 0.2528,-0.6068 0.30336,-1.2641 0.10113,-0.7078 0.30337,-1.4157 z"
         style="font-style:normal;font-variant:normal;font-weight:normal;font-stretch:normal;font-size:50.56125259px;line-height:75%;font-family:'Alte Haas Grotesk';-inkscape-font-specification:'Alte Haas Grotesk, Normal';text-align:start;writing-mode:lr-tb;text-anchor:start;fill:#f9f9f9;fill-opacity:1"
         id="path22" />
    </g>
    <path
       inkscape:connector-curvature="0"
       id="path3015"
       d=""
       style="fill:#000000" />
    <path
       inkscape:connector-curvature="0"
       id="path3030"
       d=""
       style="fill:#000000" />
    <path
       inkscape:connector-curvature="0"
       id="path3028"
       d=""
       style="fill:#000000" />
  </g>
</svg>
